zone_code,lts
RU,1
MF3,1
CB,1
R-7,1
COMMONS,1
RRO,1
R-3,1
B-3,1
IT-MF,1
CN,1
I-1,1
CI,1
P-1,1
MF2,1
AG-2,1
R-1,1
B-4,1
R-6,1
C-1,1
PL,1
IN-2,1
B-4E,1
I2,1
C1,1
Zone New Subdivision,1
IBP,1
AG-1,1
MOR,1
I-2,1
I1,1
IN-1,1
Planned,1
C2,1
R5,1
I-3,1
R2,1
IT-NC,1
R-2A,1
MU,1
AC,1
CRE,1
IT-SF2,1
SF2,1
B-2,1
AG,1
R3,1
R1,1
IOP,1
RS,1
F,1
CG,1
R-4,1
B-5,1
C-3,1
IT-SF1,1
SF1,1
Zone Legend line up lines,1
MHP,1
B-3U,1
R-5,1
CR,1
B-1,1
MF1,1
R-2,1
C-2,1
MIC,1
CO,1
IT-MX,1
CCD,1
R4,1
R-6B,1
